13:31:13 - Starting servent [5|localhost|1600]
13:31:13 - Pausing for 500 ms
13:31:13 - Pausing for 50000 ms
13:31:14 - Sending message [5|1|5|LY_MARKER|4]
13:31:15 - Got message [4|10|10|TRANSACTION|5]
13:31:15 - Got message [4|11|3|TRANSACTION|5]
13:31:15 - Got message [4|35|8|TRANSACTION|5]
13:31:15 - Got message [4|33|7|TRANSACTION|5]
13:31:15 - Got message [4|16|2|TRANSACTION|5]
13:31:15 - Got message [4|15|8|TRANSACTION|5]
13:31:15 - Got message [4|12|2|TRANSACTION|5]
13:31:15 - Sending message [5|0|5|LY_MARKER|3]
13:31:15 - Got message [4|13|10|TRANSACTION|5]
13:31:15 - Got message [4|38|4|TRANSACTION|5]
13:31:15 - Got message [4|36|9|TRANSACTION|5]
13:31:15 - Got message [4|17|6|TRANSACTION|5]
13:31:15 - Got message [4|39|10|TRANSACTION|5]
13:31:15 - Got message [4|58|7|TRANSACTION|5]
13:31:15 - Got message [4|53|1|TRANSACTION|5]
13:31:16 - Got message [4|52|2|TRANSACTION|5]
13:31:16 - Got message [4|76|2|TRANSACTION|5]
13:31:16 - Got message [4|54|5|TRANSACTION|5]
13:31:16 - Got message [4|37|2|TRANSACTION|5]
13:31:16 - Got message [4|98|6|TRANSACTION|5]
13:31:16 - Got message [4|96|3|TRANSACTION|5]
13:31:16 - Got message [4|56|4|TRANSACTION|5]
13:31:16 - Got message [4|95|5|TRANSACTION|5]
13:31:16 - Got message [4|18|2|TRANSACTION|5]
13:31:16 - Got message [4|31|5|TRANSACTION|5]
13:31:16 - Got message [4|50|1|TRANSACTION|5]
13:31:16 - Got message [4|19|9|TRANSACTION|5]
13:31:16 - Got message [3|2||TELL_PARENT|5]
MY CHILDREN: [3]
centralni 5
CENTRALNI
13:31:16 - Got message [4|30|2|TRANSACTION|5]
13:31:16 - Got message [4|34|3|TRANSACTION|5]
13:31:16 - Got message [4|74|6|TRANSACTION|5]
13:31:16 - Got message [4|14|6|TRANSACTION|5]
13:31:16 - Got message [4|73|1|TRANSACTION|5]
13:31:16 - Got message [4|75|3|TRANSACTION|5]
13:31:17 - Got message [4|57|10|TRANSACTION|5]
13:31:17 - Got message [4|55|10|TRANSACTION|5]
13:31:17 - Got message [4|32|2|TRANSACTION|5]
13:31:17 - Got message [4|79|10|TRANSACTION|5]
13:31:17 - Got message [4|103|5|LY_MARKER|5]
SERVENT: 5 HAS PARENT null
13:31:17 - Got message [3|5|5|LY_MARKER|5]
SERVENT: 5 HAS PARENT null
13:31:17 - Got message [4|92|7|TRANSACTION|5]
13:31:17 - Got message [4|100|1|TRANSACTION|5]
13:31:17 - Got message [4|77|5|TRANSACTION|5]
13:31:17 - Got message [4|78|1|TRANSACTION|5]
13:31:17 - Got message [4|99|1|TRANSACTION|5]
13:31:17 - Got message [4|91||TELL_PARENT|5]
MY CHILDREN: [3, 4]
CENTRALNI
13:31:17 - Got message [4|97|4|TRANSACTION|5]
13:31:17 - Got message [4|51|3|TRANSACTION|5]
13:31:17 - Got message [4|71|3|TRANSACTION|5]
13:31:17 - Got message [4|101|2|TRANSACTION|5]
13:31:17 - Got message [4|93|8|TRANSACTION|5]
13:31:17 - Got message [4|59|3|TRANSACTION|5]
13:31:17 - Got message [4|94|1|TRANSACTION|5]
13:31:18 - Got message [4|72|8|TRANSACTION|5]
13:31:18 - Got message [4|70|7|TRANSACTION|5]
13:31:18 - Got message [4|104||LY_TELL|5]
children [3, 4]
not children []
Provera {0=[0], 5=[5]} od cvora 4
MOJ BORDER SAD JE: {0=[0], 5=[5]}
13:31:23 - Got message [3|6||LY_TELL|5]
children [3, 4]
not children []
Provera {0=[0], 5=[5, 0]} od cvora 3
MOJ BORDER SAD JE: {0=[0], 5=[5, 0]}
13:31:24 - Recorded bitcake amount for 3 = 1535
13:31:24 - Recorded bitcake amount for 4 = 574
13:31:24 - Recorded bitcake amount for 5 = 1240
idBorderSet: {0=[0], 5=[5, 0]}
Amounts: 0 23
13:31:24 - Unreceived bitcake amount: -23 from servent 4 to servent 3
Amounts: 0 40
13:31:24 - Unreceived bitcake amount: -40 from servent 4 to servent 5
13:31:24 - System bitcake count: 3286
13:32:03 - Stopping...
