18:50:39 - Starting servent [5|localhost|1600]
18:50:39 - Pausing for 1000 ms
18:50:40 - Pausing for 50000 ms
18:50:41 - Sending message [5|5|8|TRANSACTION|3]
18:50:41 - Sending message [5|7|7|TRANSACTION|3]
18:50:41 - Sending message [5|9|3|TRANSACTION|3]
18:50:41 - Sending message [5|20|4|TRANSACTION|9]
18:50:41 - Sending message [5|19|4|TRANSACTION|6]
18:50:41 - Sending message [5|17|10|TRANSACTION|6]
18:50:41 - Sending message [5|33|7|TRANSACTION|3]
18:50:41 - Sending message [5|14|2|TRANSACTION|6]
18:50:41 - Sending message [5|18|5|TRANSACTION|6]
18:50:41 - Sending message [5|38|2|TRANSACTION|3]
18:50:41 - Sending message [5|4|3|TRANSACTION|3]
18:50:41 - Sending message [5|16|7|TRANSACTION|6]
18:50:41 - Sending message [5|23|2|TRANSACTION|9]
18:50:41 - Sending message [5|34|4|TRANSACTION|3]
18:50:41 - Sending message [5|12|2|TRANSACTION|6]
18:50:41 - Sending message [5|26|7|TRANSACTION|9]
18:50:41 - Sending message [5|1|8|TRANSACTION|3]
18:50:41 - Sending message [5|47|3|TRANSACTION|6]
18:50:41 - Sending message [5|29|8|TRANSACTION|9]
18:50:41 - Sending message [5|0|1|TRANSACTION|3]
18:50:41 - Sending message [5|31|6|TRANSACTION|3]
18:50:41 - Sending message [5|3|6|TRANSACTION|3]
18:50:41 - Sending message [5|36|2|TRANSACTION|3]
18:50:41 - Sending message [5|8|3|TRANSACTION|3]
18:50:41 - Sending message [5|37|1|TRANSACTION|3]
18:50:41 - Sending message [5|45|8|TRANSACTION|6]
18:50:41 - Sending message [5|77|6|TRANSACTION|6]
18:50:41 - Sending message [5|25|10|TRANSACTION|9]
18:50:41 - Sending message [5|6|2|TRANSACTION|3]
18:50:41 - Sending message [5|70|6|TRANSACTION|6]
18:50:41 - Sending message [5|32|4|TRANSACTION|3]
18:50:41 - Sending message [5|15|7|TRANSACTION|6]
18:50:42 - Sending message [5|76|6|TRANSACTION|6]
18:50:42 - Sending message [5|13|2|TRANSACTION|6]
18:50:42 - Sending message [5|56|10|TRANSACTION|9]
18:50:42 - Sending message [5|24|4|TRANSACTION|9]
18:50:42 - Sending message [5|72|3|TRANSACTION|6]
18:50:42 - Sending message [5|81|3|TRANSACTION|9]
18:50:42 - Sending message [5|2|8|TRANSACTION|3]
18:50:42 - Sending message [5|87|2|TRANSACTION|9]
18:50:42 - Sending message [5|62|10|TRANSACTION|3]
18:50:42 - Sending message [5|43|3|TRANSACTION|6]
18:50:42 - Sending message [5|95|4|TRANSACTION|3]
18:50:42 - Sending message [5|42|4|TRANSACTION|6]
18:50:42 - Sending message [5|78|10|TRANSACTION|6]
18:50:42 - Sending message [5|102|6|TRANSACTION|6]
18:50:42 - Sending message [5|22|3|TRANSACTION|9]
18:50:42 - Sending message [5|69|3|TRANSACTION|3]
18:50:42 - Sending message [5|66|9|TRANSACTION|3]
18:50:42 - Sending message [5|86|6|TRANSACTION|9]
18:50:42 - Sending message [5|10|3|TRANSACTION|6]
18:50:42 - Sending message [5|41|2|TRANSACTION|6]
18:50:42 - Sending message [5|83|3|TRANSACTION|9]
18:50:42 - Sending message [5|11|1|TRANSACTION|6]
18:50:42 - Sending message [5|50|2|TRANSACTION|9]
18:50:42 - Sending message [5|52|10|TRANSACTION|9]
18:50:42 - Sending message [5|90|8|TRANSACTION|3]
18:50:42 - Sending message [5|27|10|TRANSACTION|9]
18:50:42 - Sending message [5|74|1|TRANSACTION|6]
18:50:42 - Sending message [5|73|9|TRANSACTION|6]
18:50:42 - Sending message [5|28|6|TRANSACTION|9]
18:50:42 - Sending message [5|89|5|TRANSACTION|9]
18:50:42 - Sending message [5|21|10|TRANSACTION|9]
18:50:42 - Sending message [5|40|3|TRANSACTION|6]
18:50:42 - Sending message [5|88|9|TRANSACTION|9]
18:50:42 - Sending message [5|54|1|TRANSACTION|9]
18:50:42 - Sending message [5|55|3|TRANSACTION|9]
18:50:42 - Sending message [5|30|1|TRANSACTION|3]
18:50:42 - Sending message [5|109|7|TRANSACTION|6]
18:50:42 - Sending message [5|64|8|TRANSACTION|3]
18:50:42 - Sending message [5|65|1|TRANSACTION|3]
18:50:42 - Sending message [5|121|5|TRANSACTION|3]
18:50:42 - Sending message [5|35|5|TRANSACTION|3]
18:50:42 - Sending message [5|49|3|TRANSACTION|6]
18:50:42 - Sending message [5|57|10|TRANSACTION|9]
18:50:42 - Sending message [5|105|4|TRANSACTION|6]
18:50:42 - Sending message [5|39|8|TRANSACTION|3]
18:50:42 - Sending message [5|60|7|TRANSACTION|3]
18:50:42 - Sending message [5|58|10|TRANSACTION|9]
18:50:42 - Sending message [5|48|7|TRANSACTION|6]
18:50:42 - Sending message [5|61|5|TRANSACTION|3]
18:50:42 - Sending message [5|114|4|TRANSACTION|9]
18:50:42 - Sending message [5|137|2|TRANSACTION|6]
18:50:42 - Sending message [5|123|3|TRANSACTION|3]
18:50:42 - Sending message [5|53|3|TRANSACTION|9]
18:50:42 - Sending message [5|79|5|TRANSACTION|6]
18:50:42 - Sending message [5|128|2|TRANSACTION|3]
18:50:42 - Sending message [5|46|1|TRANSACTION|6]
18:50:42 - Sending message [5|108|9|TRANSACTION|6]
18:50:42 - Sending message [5|63|2|TRANSACTION|3]
18:50:42 - Sending message [5|44|10|TRANSACTION|6]
18:50:42 - Sending message [5|75|3|TRANSACTION|6]
18:50:42 - Sending message [5|71|5|TRANSACTION|6]
18:50:42 - Sending message [5|111|2|TRANSACTION|9]
18:50:42 - Sending message [5|103|6|TRANSACTION|6]
18:50:42 - Sending message [5|135|10|TRANSACTION|6]
18:50:42 - Sending message [5|119|10|TRANSACTION|9]
18:50:42 - Sending message [5|120|8|TRANSACTION|3]
18:50:42 - Sending message [5|84|1|TRANSACTION|9]
18:50:42 - Sending message [5|59|9|TRANSACTION|9]
18:50:42 - Sending message [5|93|3|TRANSACTION|3]
18:50:42 - Sending message [5|141|4|TRANSACTION|9]
18:50:42 - Sending message [5|100|5|TRANSACTION|6]
18:50:42 - Sending message [5|122|9|TRANSACTION|3]
18:50:42 - Sending message [5|67|6|TRANSACTION|3]
18:50:42 - Sending message [5|104|5|TRANSACTION|6]
18:50:42 - Sending message [5|51|6|TRANSACTION|9]
18:50:42 - Sending message [5|80|10|TRANSACTION|9]
18:50:42 - Sending message [5|82|8|TRANSACTION|9]
18:50:42 - Sending message [5|130|1|TRANSACTION|6]
18:50:42 - Sending message [5|129|4|TRANSACTION|3]
18:50:42 - Sending message [5|68|4|TRANSACTION|3]
18:50:42 - Sending message [5|131|8|TRANSACTION|6]
18:50:42 - Sending message [5|139|8|TRANSACTION|6]
18:50:42 - Sending message [5|96|3|TRANSACTION|3]
18:50:42 - Sending message [5|91|5|TRANSACTION|3]
18:50:42 - Sending message [5|113|8|TRANSACTION|9]
18:50:42 - Sending message [5|133|8|TRANSACTION|6]
18:50:42 - Sending message [5|97|1|TRANSACTION|3]
18:50:42 - Sending message [5|94|10|TRANSACTION|3]
18:50:42 - Sending message [5|106|9|TRANSACTION|6]
18:50:42 - Sending message [5|134|9|TRANSACTION|6]
18:50:42 - Sending message [5|101|5|TRANSACTION|6]
18:50:42 - Sending message [5|85|10|TRANSACTION|9]
18:50:42 - Sending message [5|115|3|TRANSACTION|9]
18:50:42 - Sending message [5|116|2|TRANSACTION|9]
18:50:43 - Sending message [5|125|2|TRANSACTION|3]
18:50:43 - Sending message [5|117|5|TRANSACTION|9]
18:50:43 - Sending message [5|92|8|TRANSACTION|3]
18:50:43 - Sending message [5|99|8|TRANSACTION|3]
18:50:43 - Sending message [5|147|7|TRANSACTION|9]
18:50:43 - Sending message [5|112|3|TRANSACTION|9]
18:50:43 - Sending message [5|98|7|TRANSACTION|3]
18:50:43 - Sending message [5|118|5|TRANSACTION|9]
18:50:43 - Sending message [5|145|9|TRANSACTION|9]
18:50:43 - Sending message [5|146|3|TRANSACTION|9]
18:50:43 - Sending message [5|138|9|TRANSACTION|6]
18:50:43 - Sending message [5|149|2|TRANSACTION|9]
18:50:43 - Sending message [5|143|5|TRANSACTION|9]
18:50:43 - Sending message [5|107|9|TRANSACTION|6]
18:50:43 - Sending message [5|110|9|TRANSACTION|9]
18:50:43 - Sending message [5|142|2|TRANSACTION|9]
18:50:43 - Sending message [5|126|4|TRANSACTION|3]
18:50:43 - Sending message [5|127|3|TRANSACTION|3]
18:50:43 - Sending message [5|124|7|TRANSACTION|3]
18:50:43 - Sending message [5|136|10|TRANSACTION|6]
18:50:43 - Sending message [5|140|9|TRANSACTION|9]
18:50:43 - Sending message [5|144|2|TRANSACTION|9]
18:50:43 - Sending message [5|132|6|TRANSACTION|6]
18:50:43 - Sending message [5|148|8|TRANSACTION|9]
18:51:30 - Stopping...
